…
}

output_mu0 = vector("list", length = 5000)

for (i in 1:5000) {
  
  output_mu0[[i]] = sim_test(mu = 0)
  
}

bind_rows(output_mu0)
```

    ## # A tibble: 5,000 x 2
    ##    estimate p.value
    ##       <dbl>   <dbl>
    ##  1   0.336    0.654
    ##  2  -0.133    0.885
    ##  3  -0.0949   0.924
    ##  4  -0.0240   0.978
    ##  5   0.242    0.787
    ##  6   0.226    0.834
    ##  7   0.478    0.633
    ##  8  -0.0877   0.918
    ##  9   0.258    0.729
    ## 10  -0.207    0.788
    ## # ... with 4,990 more rows
…
